{
  "shell_port": 59053,
  "iopub_port": 41197,
  "stdin_port": 54139,
  "control_port": 37569,
  "hb_port": 51401,
  "ip": "127.0.0.1",
  "key": "e7dd5bc0-aa8426a67967ebb3775bccdd",
  "transport": "tcp",
  "signature_scheme": "hmac-sha256",
  "kernel_name": ""
}